[{
  "_id": {
    "$oid": "5fd2389f29f40a676ff7e61b"
  },
  "Mahasiswa": {
    "_id": "5fd22d5029f40a676ff7e60f",
    "Nama": "Andri",
    "Fakultas": {
      "_id": "5fd22c7c29f40a676ff7e60a",
      "Nama_Fk": "Informatika"
    }
  },
  "MataKuliah": {
    "_id": "5fd2326c29f40a676ff7e615",
    "Nama_MK": "Kalkulus",
    "Nilai": {
      "UTS": "75",
      "UAS": "80"
    }
  }
}]